{
  "baseUrl": "http://localhost:3000",
  "fixturesFolder": "test/e2e/fixtures",
  "integrationFolder": "test/e2e/integration",
  "pluginsFile": "test/e2e/plugins/index.js",
  "screenshotsFolder": "test/e2e/screenshots",
  "supportFile": "test/e2e/support/index.js",
  "videosFolder": "test/e2e/videos",
  "video": false,
  "screenshotOnRunFailure": false
}
